…
``` r
count_tibble |> 
  filter(region=="v19") |> 
  group_by(genome) |> 
  summarize(n_rrn = sum(count)) |> 
  count(n_rrn) |> 
  mutate(fraction= 100*n/sum(n))
```

    ## # A tibble: 21 × 3
    ##    n_rrn     n fraction
    ##    <dbl> <int>    <dbl>
    ##  1     1  3292     8.26
    ##  2     2  3927     9.85
    ##  3     3  4103    10.3 
    ##  4     4  4371    11.0 
    ##  5     5  3143     7.88
    ##  6     6  5660    14.2 
    ##  7     7  7912    19.8 
    ##  8     8  3942     9.89
    ##  9     9   942     2.36
    ## 10    10  1115     2.80
    ## # ℹ 11 more rows
…
